...
----------------------------------------------------------------------
Ran 3 tests in 0.001s

OK
Name             Stmts   Miss Branch BrPart  Cover   Missing
------------------------------------------------------------
Netflix.py          43      3      6      1    92%   25-28, 21->25
TestNetflix.py      23      0      0      0   100%
------------------------------------------------------------
TOTAL               66      3      6      1    94%
